<?xml version="1.0" standalone="no"?>
<!DOCTYPE svg PUBLIC "-//W3C//DTD SVG 1.1//EN" "http://www.w3.org/Graphics/SVG/1.1/DTD/svg11.dtd">
<svg xmlns="http://www.w3.org/2000/svg">
<metadata>Generated by Fontastic.me</metadata>
<defs>
<font id="untitled-font-2" horiz-adv-x="512">
<font-face font-family="untitled-font-2" units-per-em="512" ascent="480" descent="-32"/>
<missing-glyph horiz-adv-x="512" />

<glyph glyph-name="advertising" unicode="&#97;" d="M479 512c-18 0-33-15-33-33l0-2-385-121c-6 9-16 16-28 16-18 0-33-15-33-33l0-100c0-18 15-33 33-33 12 0 22 6 28 16l25-8 38-170c6-26 28-44 55-44 51 0 60 48 56 69l-24 106 235-74 0-2c0-18 15-33 33-33 18 0 33 15 33 33l0 380c0 18-15 33-33 33z m-429-273c0-9-8-16-17-16-9 0-16 7-16 16l0 100c0 9 7 16 16 16 9 0 17-7 17-16z m168-174c3-12-2-48-39-48-19 0-35 12-39 31l-35 160 88-28z m228 54l-380 118 0 104 380 118z m49-20c0-9-7-16-16-16-9 0-17 7-17 16l0 380c0 9 8 16 17 16 9 0 16-7 16-16z"/>
<glyph glyph-name="apps" unicode="&#98;" d="M207 512l-176 0c-17 0-31-14-31-31l0-176c0-17 14-31 31-31l176 0c17 0 31 14 31 31l0 176c0 17-14 31-31 31z m12-207c0-7-5-12-12-12l-176 0c-7 0-13 5-13 12l0 176c0 7 6 13 13 13l176 0c7 0 12-6 12-13z m262 207l-176 0c-17 0-31-14-31-31l0-176c0-17 14-31 31-31l176 0c17 0 31 14 31 31l0 176c0 17-14 31-31 31z m13-207c0-7-6-12-13-12l-176 0c-7 0-12 5-12 12l0 176c0 7 5 13 12 13l176 0c7 0 13-6 13-13z m-287-67l-176 0c-17 0-31-14-31-31l0-176c0-17 14-31 31-31l176 0c17 0 31 14 31 31l0 176c0 17-14 31-31 31z m12-207c0-7-5-13-12-13l-176 0c-7 0-13 6-13 13l0 176c0 7 6 12 13 12l176 0c7 0 12-5 12-12z m284 97l-101 0 0 101c0 5-4 9-9 9-5 0-9-4-9-9l0-101-101 0c-5 0-9-4-9-9 0-5 4-9 9-9l101 0 0-101c0-5 4-9 9-9 5 0 9 4 9 9l0 101 101 0c5 0 9 4 9 9 0 5-4 9-9 9z"/>
<glyph glyph-name="close" unicode="&#99;" d="M512 18l-238 238 238 238-18 18-238-238-238 238-18-18 238-238-238-238 18-18 238 238 238-238z"/>
<glyph glyph-name="content" unicode="&#100;" d="M256 0c-141 0-256 115-256 256 0 141 115 256 256 256 141 0 256-115 256-256 0-141-115-256-256-256z m0 495c-132 0-239-107-239-239 0-132 107-239 239-239 132 0 239 107 239 239 0 132-107 239-239 239z m-46-371c-14 0-24 11-24 24l0 216c0 13 10 24 24 24 5 0 11-2 15-5l145-107c6-4 10-12 10-20 0-8-4-16-11-20l-144-107c-4-3-10-5-15-5z m0 247c-4 0-7-3-7-7l0-216c0-4 3-7 7-7 2 0 3 1 4 1l146 108c2 1 4 4 4 6 0 2-2 5-4 6l-145 107c-2 1-3 2-5 2z"/>
<glyph glyph-name="dashboard" unicode="&#101;" d="M228 0c-126 0-228 102-228 228 0 126 102 229 228 229 4 0 7-3 7-7l0-215 215 0c4 0 7-3 7-7 0-126-103-228-229-228z m-7 443c-115-4-207-99-207-215 0-118 96-214 214-214 116 0 211 92 215 207l-215 0c-3 0-7 4-7 7z m284-166l-221 0c-4 0-7 3-7 7l0 221c0 4 3 7 7 7 126 0 228-102 228-228 0-4-3-7-7-7z m-214 14l207 0c-4 112-95 203-207 207z"/>
<glyph glyph-name="delete" unicode="&#102;" d="M256 69c5 0 9 4 9 9l0 286c0 5-4 9-9 9-5 0-9-4-9-9l0-286c0-5 4-9 9-9z m-87 0c5 0 9 4 9 9l0 286c0 5-4 9-9 9-5 0-8-4-8-9l0-286c0-5 3-9 8-9z m174 0c5 0 8 4 8 9l0 286c0 5-3 9-8 9-5 0-9-4-9-9l0-286c0-5 4-9 9-9z m113 391l-122 0c-1 11-5 29-16 41-7 7-16 11-27 11l-87 0c-11 0-20-4-27-11-12-12-15-30-16-41l-105 0c-4 0-8-4-8-9 0-5 4-8 8-8l18 0 17-400c0-15 9-43 42-43l246 0c33 0 42 28 42 43l17 400 18 0c4 0 8 3 8 8 0 5-4 9-8 9z m-267 29c4 4 9 6 15 6l87 0c6 0 11-2 15-6 7-7 9-20 10-29l-138 0c1 9 4 22 11 29z m215-445c0-3-1-27-25-27l-246 0c-23 0-25 24-25 27l-17 399 330 0z"/>
<glyph glyph-name="edit" unicode="&#103;" d="M16 52c1 0 1 0 2 0l132 22c0 0 1 0 1 0 1 0 1 0 1 0 1 1 2 2 3 2 0 0 0 0 0 1l305 306c2 2 3 5 3 8 0 3-1 5-3 7l-110 111c-4 4-10 4-14 0l-305-307c-1 0-1 0-1 0 0-1-1-2-2-3 0 0 0-1 0-1 0 0 0-1 0-2l-22-132c-1-4 0-7 3-9 2-2 4-3 7-3z m327 435l96-96-291-293-96 97z m-298-314l66-66 16-16-99-17z m452-152l-482 0c-6 0-10-5-10-11 0-5 4-10 10-10l482 0c6 0 10 5 10 10 0 6-4 11-10 11z"/>
<glyph glyph-name="nav-arrow" unicode="&#104;" d="M506 270c0 0 0 0 0 0l-104 104c-8 8-21 8-29 0-7-8-7-20 0-28l71-70-424 0c-11 0-20-9-20-20 0-11 9-20 20-20l424 0-71-70c-7-8-7-20 0-28 8-8 21-8 29 0l104 104c0 0 0 0 0 0 8 8 8 20 0 28z"/>
<glyph glyph-name="notifications" unicode="&#105;" d="M497 497c-19 20-51 20-70 0-9-9-14-21-14-33-25 15-53 23-83 23-42 0-81-16-111-46l-54-54c-32-32-88-53-145-54-8 0-15-5-18-13-4-8-2-17 4-23l87-87c-26-32-23-80 7-110 16-16 38-25 59-25 18 0 36 6 51 18l87-87c4-4 10-6 15-6 3 0 5 1 8 2 8 3 13 10 13 18 1 57 22 113 54 145l54 54c53 53 60 133 23 194 12 0 24 5 33 14l0 0c20 19 20 51 0 70z m-383-383c-22 22-24 57-6 82l88-88c-25-18-60-16-82 6z m313 120l-55-55c-35-35-58-96-60-158l-291 291 0 1c62 1 123 24 158 59l55 55c26 26 60 40 96 40 37 0 71-14 97-40 0 0 0 0 0 0 0 0 0 0 0 0 53-53 53-140 0-193z m56 207c-12-11-30-11-42 0 0 0 0 0 0 0 0 0 0 0 0 0-11 12-11 30 0 42 6 6 14 9 21 9 8 0 15-3 21-9 11-12 11-30 0-42z"/>
<glyph glyph-name="search" unicode="&#106;" d="M205 128c43 0 83 16 114 42l139-139c3-3 7-5 12-5 4 0 8 2 11 5 6 6 6 17 0 23l-139 139c26 31 42 71 42 114 0 99-80 179-179 179-99 0-179-80-179-179 0-99 80-179 179-179z m0 326c81 0 146-66 146-147 0-81-65-146-146-146-81 0-147 66-147 146 0 81 66 147 147 147z"/>
<glyph glyph-name="test-devices" unicode="&#107;" d="M358 512l-204 0c-24 0-43-19-43-43l0-426c0-24 19-43 43-43l204 0c24 0 43 19 43 43l0 426c0 24-19 43-43 43z m26-469c0-14-11-26-26-26l-204 0c-15 0-26 12-26 26l0 34 256 0z m0 51l-256 0 0 341 256 0z m0 358l-256 0 0 17c0 14 11 26 26 26l204 0c15 0 26-12 26-26z"/>
<glyph glyph-name="tick" unicode="&#108;" d="M505 437c-10 10-27 10-37 0l-306-307-118 118c-10 10-27 10-37 0-10-10-10-27 0-37l136-136c10-10 27-9 37 0l325 325c10 10 10 27 0 37z"/>
<glyph glyph-name="user" unicode="&#109;" d="M512 10c-1 89-57 168-139 199-3 1-6 0-9-2-31-24-69-36-108-36-40 0-77 12-109 36-2 2-5 3-8 2-28-11-55-28-77-50-40-40-62-94-62-150 0-5 4-9 9-9l494 0c0 0 0 0 0 0 5 0 9 4 9 9 0 0 0 1 0 1z m-495 7c2 49 22 95 58 130 18 19 41 34 66 44 34-24 73-37 115-37 42 0 81 13 115 37 72-28 120-97 124-174z m239 171c89 0 162 72 162 162 0 89-73 162-162 162-89 0-162-73-162-162 0-90 73-162 162-162z m0 307c80 0 145-65 145-145 0-80-65-145-145-145-80 0-145 65-145 145 0 80 65 145 145 145z"/>
<glyph glyph-name="vpp-logo" unicode="&#110;" d="M275 342c9 0 17-1 25-5 8-3 16-8 21-14 6-6 11-13 15-21 3-8 5-17 5-26 0-9-2-18-5-25-4-9-9-15-15-22-5-6-13-10-21-14-8-3-16-5-25-5-8 0-16 1-22 4-7 2-13 6-19 10l0-55-25 0 0 107c0 9 1 18 5 26 3 8 8 15 14 21 6 6 13 11 21 14 8 4 17 5 26 5z m0-109c5 0 11 1 16 4 6 2 10 5 14 9 4 4 7 8 9 13 2 5 4 11 4 17 0 6-2 11-4 17-2 5-5 9-9 13-4 4-8 7-14 9-5 3-11 4-16 4-6 0-12-1-17-4-5-2-10-5-14-9-4-4-7-8-9-13-2-6-3-11-3-17 0-6 1-12 3-17 2-5 5-9 9-13 4-4 9-7 14-9 5-3 11-4 17-4z m148 109c10 0 18-1 26-5 8-3 15-8 21-14 6-6 11-13 14-21 4-8 6-17 6-26 0-9-2-18-6-25-3-9-8-15-14-22-6-6-13-10-21-14-8-3-16-5-26-5-7 0-15 1-22 4-7 2-13 6-18 10l0-55-26 0 0 107c0 9 2 18 6 26 3 8 8 15 14 21 5 6 12 11 20 14 9 4 17 5 26 5z m0-109c6 0 12 1 17 4 5 2 10 5 14 9 4 4 7 8 9 13 2 5 3 11 3 17 0 6-1 11-3 17-2 5-6 9-9 13-4 4-9 7-14 9-5 3-11 4-17 4-6 0-11-1-16-4-6-2-10-5-14-9-4-4-7-8-9-13-3-6-4-11-4-17 0-6 1-12 4-17 2-5 5-9 9-13 4-4 8-7 14-9 5-3 10-4 16-4z m-288-45l48 85 13 24c5 9 5 20 0 29-5 9-14 14-24 14l-123 0c-11 0-20-5-25-14-2-5-4-10-4-15 0-4 2-9 4-14l11-19 15-26 36-64c5-9 14-14 24-14 10-1 19 5 25 14z m-30 11l-39 69-5 9-17 31c-2 3-1 5 0 6 0 1 2 3 5 3l123 0c3 0 4-2 5-3 0 0 1-1 1-3 0-1-1-1-1-3l-20-34-42-75c-1-2-4-3-5-3-1 0-3 1-5 3z"/>
<glyph glyph-name="failure" unicode="&#111;" d="M256 512c-141 0-256-115-256-256 0-141 115-256 256-256 141 0 256 115 256 256 0 141-115 256-256 256z m0-495c-132 0-239 107-239 239 0 132 107 239 239 239 132 0 239-107 239-239 0-132-107-239-239-239z m100 339c-3 3-9 3-12 0l-88-88-88 88c-3 3-9 3-12 0-3-3-3-9 0-12l88-88-88-88c-3-3-3-9 0-12 2-2 4-2 6-2 2 0 5 0 6 2l88 88 88-88c2-2 4-2 6-2 2 0 4 0 6 2 3 3 3 9 0 12l-88 88 88 88c3 3 3 9 0 12z"/>
<glyph glyph-name="success" unicode="&#112;" d="M206 144l192 193-12 12-186-186-90 91-12-13 96-97z m50-144c0 0 0 0 0 0 68 0 133 27 181 75 48 48 75 113 75 181 0 68-27 133-75 181-48 48-113 75-181 75 0 0 0 0 0 0-68 0-133-27-181-75-48-48-75-113-75-181 0-68 27-133 75-181 48-48 113-75 181-75z m-170 426c46 45 106 70 170 70 0 0 0 0 0 0 64 0 124-25 170-70 45-46 70-106 70-170 0-64-25-124-70-170-46-45-106-70-170-70l0 0c0 0 0 0 0 0-64 0-124 25-170 70-45 46-70 106-70 170 0 64 25 124 70 170z"/>
<glyph glyph-name="undo" unicode="&#113;" d="M26 149l56 57c4 4 4 11 0 15-4 4-11 4-15 0l-64-64c-4-4-4-11 0-15l64-64c2-2 5-3 8-3 2 0 5 1 7 3 4 4 4 11 0 15z m337 288l-246 0c-6 0-10-4-10-10 0-6 4-11 10-11l246 0c70 0 128-57 128-128 0-71-58-128-128-128l-352 0c-6 0-11-5-11-11 0-6 5-10 11-10l352 0c82 0 149 67 149 149 0 82-67 149-149 149z"/>
</font></defs></svg>
